login_bonus_id	login_bonus_pic	login_bonus_description	start_day	end_day	count	Remuneration	number	loop	priority
1	login_bonus_01.jpg	login_bonus_description01_1	2019/01/01 00:00:00	9999/01/01 00:00:00	1	1	1	2	100
1	login_bonus_01.jpg	login_bonus_description01_2	2019/01/01 00:00:00	9999/01/01 00:00:00	2	2	1	2	100
1	login_bonus_01.jpg	login_bonus_description01_3	2019/01/01 00:00:00	9999/01/01 00:00:00	3	3	1	2	100
1	login_bonus_01.jpg	login_bonus_description01_4	2019/01/01 00:00:00	9999/01/01 00:00:00	4	4	1	2	100
1	login_bonus_01.jpg	login_bonus_description01_5	2019/01/01 00:00:00	9999/01/01 00:00:00	5	5	1	2	100
1	login_bonus_01.jpg	login_bonus_description01_6	2019/01/01 00:00:00	9999/01/01 00:00:00	6	6	1	2	100
1	login_bonus_01.jpg	login_bonus_description01_7	2019/01/01 00:00:00	9999/01/01 00:00:00	7	7	1	2	100
2	login_bonus_02.jpg	login_bonus_description02_1	2019/01/01 00:00:00	2019/01/31 23:59:59	1	1	300	1	200
2	login_bonus_02.jpg	login_bonus_description02_2	2019/01/01 00:00:00	2019/01/31 23:59:59	2	37	20	1	200
2	login_bonus_02.jpg	login_bonus_description02_3	2019/01/01 00:00:00	2019/01/31 23:59:59	3	35	10	1	200
2	login_bonus_02.jpg	login_bonus_description02_4	2019/01/01 00:00:00	2019/01/31 23:59:59	4	36	1	1	200
2	login_bonus_02.jpg	login_bonus_description02_5	2019/01/01 00:00:00	2019/01/31 23:59:59	5	35	10	1	200
2	login_bonus_02.jpg	login_bonus_description02_6	2019/01/01 00:00:00	2019/01/31 23:59:59	6	1	700	1	200
2	login_bonus_02.jpg	login_bonus_description02_7	2019/01/01 00:00:00	2019/01/31 23:59:59	7	35	10	1	200
2	login_bonus_02.jpg	login_bonus_description02_8	2019/01/01 00:00:00	2019/01/31 23:59:59	8	39	100	1	200
2	login_bonus_02.jpg	login_bonus_description02_9	2019/01/01 00:00:00	2019/01/31 23:59:59	9	1	2000	1	200
2	login_bonus_02.jpg	login_bonus_description02_10	2019/01/01 00:00:00	2019/01/31 23:59:59	10	38	1	1	200
2	login_bonus_02.jpg	login_bonus_description02_10	2019/01/01 00:00:00	2019/01/31 23:59:59	10	1	100	1	200
2	login_bonus_02.jpg	login_bonus_description02_10	2019/01/01 00:00:00	2019/01/31 23:59:59	10	2	1	1	200
2	login_bonus_02.jpg	login_bonus_description02_10	2019/01/01 00:00:00	2019/01/31 23:59:59	10	3	10	1	200
